Zusammenhänge bei mehr als zwei Variablen mit der multiplen Regression
…
Dann setzen wir den drop_na-Befehl, um alle Fällen mit fehlenden Werten zu entfernen (in der Klammer spezifizieren wir wieder, auf welche Variablen sich der Befehl beziehen soll). Das modifizierte Datenset weisen wir einem neuen Datenobjekt zu: daten_mod2

Schließlich nutze ich den slice_sample-Befehl, um aus unseren 8432 Fällen ein Zufallssample von n=100 Fällen zu ziehen, weil mir das die visuelle Interpretation erleichtert (diesen Befehl könnten wir hier auch weglassen, dann bekommen wir unten aber sehr sehr viele Datenpunkt in unserem Streudiagramm - probieren Sie es mal aus!)

daten_mod <- daten %>% 
  rename(internetnutzung = netustm,
         alter = agea,
         politische_Nachrichtenrezeption = nwspol,
         gender = gndr) %>% 
  drop_na(c(internetnutzung, alter, politische_Nachrichtenrezeption, gender)) %>% 
slice_sample(n = 100) 
daten_mod

# A tibble: 100 × 166
        idno cntry gender alter marsts                   edubde1 eduade2 eduade3
       <dbl> <fct> <fct>  <dbl> <fct>                    <fct>   <fct>   <fct>  
 1      2102 FR    Female    72 None of these (NEVER ma… <NA>    <NA>    <NA>   
 2       430 FR    Female    45 <NA>                     <NA>    <NA>    <NA>   
 3  10003996 DE    Female    51 <NA>                     Mittle… Kein H… Meiste…
 4 100001191 GB    Female    40 None of these (NEVER ma… <NA>    <NA>    <NA>   
 5 100002026 GB    Female    61 <NA>                     <NA>    <NA>    <NA>   
 6      1123 FR    Male      63 <NA>                     <NA>    <NA>    <NA>   
 7  10002602 DE    Female    36 <NA>                     Mittle… Kein H… 2- bis…
 8      2192 FR    Female    32 None of these (NEVER ma… <NA>    <NA>    <NA>   
 9  10000916 DE    Male      31 <NA>                     Abschl… Kein H… Gewerb…
10       896 SE    Female    65 <NA>                     <NA>    <NA>    <NA>   
# ℹ 90 more rows
# ℹ 158 more variables: politische_Nachrichtenrezeption <dbl>, netusoft <fct>,
#   internetnutzung <dbl>, ppltrst <dbl>, pplfair <dbl>, pplhlp <dbl>,
#   polintr <fct>, psppsgva <fct>, actrolga <fct>, psppipla <fct>,
#   cptppola <fct>, trstprl <dbl>, trstlgl <dbl>, trstplc <dbl>, trstplt <dbl>,
#   trstprt <dbl>, trstep <dbl>, trstun <dbl>, vote <fct>, prtvede1 <fct>,
#   prtvede2 <fct>, contplt <fct>, wrkprty <fct>, wrkorg <fct>, badge <fct>, …
…
Nun wollen wir noch Geschlecht (gndr) als unabhängige Variable mit in unser Regressionsmodell aufnehmen. Bei Gender haben wir aber das Problem, dass diese Variable nicht metrisch skaliert ist! Es handelt sich vielmehr um eine kategoriale Variable. Wie Sie schon gelernt haben, können Sie diese mit einem “Trick” ebenfalls in die Regressionsanalyse einbringen - Sie müssen diese dann aber durch Dummy-Coding passend machen. Wir wollen uns hier mal anschauen, wie das funktioniert. Dazu müssen wir die Variable mittels mutate-Befehl erst einmal umcodieren.

Durch die Dummy-Codierung wird die kategoriale Variable in zwei Gruppen übersetzt, von denen die eine mit 1 und die andere mit 0 codiert wird. Die Gruppe, der der Wert 0 zugeordnet wird, ist dann die Referenzkategorie. In unserem Beispiel Beispiel machen wir “männlich” zur Referenzkategorie (und codieren es mit 0 um). Der Regressionskoeffizient b gibt dann genau die Menge an, um die sich die Internetnutzung ändert, wenn sich das Geschlecht gegenüber der Referenzkategorie verändert.

PS: Die Variable als numerischen Wert zu behandeln, ist in unserem Fall etwas kompliziert, weil diese eine Faktorvariable war, die wir zuerst in eine Charaktervariable umwandeln mussten.

1.2.2 Dummy Codierung der Variable Gender

daten_mod2 <- daten_mod %>%
mutate(gender_r  = recode(gender, 'Male'='0', 'Female'='1')) %>% # Recodierung der Var Gender zur Dummy-Variable
  mutate(gender_r = as.numeric(as.character(gender_r))) # Variable als numerischen Wert behandeln
daten_mod2

# A tibble: 100 × 167
        idno cntry gender alter marsts                   edubde1 eduade2 eduade3
       <dbl> <fct> <fct>  <dbl> <fct>                    <fct>   <fct>   <fct>  
 1      2102 FR    Female    72 None of these (NEVER ma… <NA>    <NA>    <NA>   
 2       430 FR    Female    45 <NA>                     <NA>    <NA>    <NA>   
 3  10003996 DE    Female    51 <NA>                     Mittle… Kein H… Meiste…
 4 100001191 GB    Female    40 None of these (NEVER ma… <NA>    <NA>    <NA>   
 5 100002026 GB    Female    61 <NA>                     <NA>    <NA>    <NA>   
 6      1123 FR    Male      63 <NA>                     <NA>    <NA>    <NA>   
 7  10002602 DE    Female    36 <NA>                     Mittle… Kein H… 2- bis…
 8      2192 FR    Female    32 None of these (NEVER ma… <NA>    <NA>    <NA>   
 9  10000916 DE    Male      31 <NA>                     Abschl… Kein H… Gewerb…
10       896 SE    Female    65 <NA>                     <NA>    <NA>    <NA>   
# ℹ 90 more rows
# ℹ 159 more variables: politische_Nachrichtenrezeption <dbl>, netusoft <fct>,
#   internetnutzung <dbl>, ppltrst <dbl>, pplfair <dbl>, pplhlp <dbl>,
#   polintr <fct>, psppsgva <fct>, actrolga <fct>, psppipla <fct>,
#   cptppola <fct>, trstprl <dbl>, trstlgl <dbl>, trstplc <dbl>, trstplt <dbl>,
#   trstprt <dbl>, trstep <dbl>, trstun <dbl>, vote <fct>, prtvede1 <fct>,
#   prtvede2 <fct>, contplt <fct>, wrkprty <fct>, wrkorg <fct>, badge <fct>, …
…
1.3 Add-On: Weitere Plots zur (vergleichenden) Regressionsanalyse

daten_mod3 <- daten %>% 
  select(agea, netustm, cntry) %>% 
  rename(alter = agea,
         internetnutzung = netustm,
         land = cntry) %>% 
  filter(land %in% c("DE", "FR", "IS", "PL")) %>% 
  drop_na() %>% 
  group_by(land) %>% 
  slice_sample(n = 100) %>% 
  ungroup()
daten_mod3

# A tibble: 200 × 3
   alter internetnutzung land 
   <dbl>           <dbl> <fct>
 1    47              60 DE   
 2    22             120 DE   
 3    51              90 DE   
 4    58             480 DE   
 5    47             180 DE   
 6    60             240 DE   
 7    59             150 DE   
 8    59             300 DE   
 9    22             120 DE   
10    36             120 DE   
# ℹ 190 more rows
…
