Inhalt - Zusammenhänge bei mehr als zwei Variablen mit der multiplen Regression
…
Schließlich nutze ich den slice_sample-Befehl, um aus unseren 8432 Fällen ein Zufallssample von n=100 Fällen zu ziehen, weil mir das die visuelle Interpretation erleichtert (diesen Befehl könnten wir hier auch weglassen, dann bekommen wir unten aber sehr sehr viele Datenpunkt in unserem Streudiagramm - probieren Sie es mal aus!)

Code

daten_mod <- daten %>% 
  rename(internetnutzung = netustm,
         alter = agea,
         politische_Nachrichtenrezeption = nwspol,
         gender = gndr) %>% 
  drop_na(c(internetnutzung, alter, politische_Nachrichtenrezeption, gender)) %>% 
slice_sample(n = 100) 
daten_mod

# A tibble: 100 × 166
        idno cntry gender alter marsts                   edubde1 eduade2 eduade3
       <dbl> <fct> <fct>  <dbl> <fct>                    <fct>   <fct>   <fct>  
 1  10008368 DE    Female    17 None of these (NEVER ma… (Noch)… Kein H… Kein b…
 2      1834 SE    Male      48 None of these (NEVER ma… <NA>    <NA>    <NA>   
 3      3551 FR    Male      48 <NA>                     <NA>    <NA>    <NA>   
 4      1231 FR    Female    35 None of these (NEVER ma… <NA>    <NA>    <NA>   
 5      2164 SE    Male      42 None of these (NEVER ma… <NA>    <NA>    <NA>   
 6      2817 FR    Female    23 None of these (NEVER ma… <NA>    <NA>    <NA>   
 7       591 SE    Male      70 <NA>                     <NA>    <NA>    <NA>   
 8      1135 SE    Male      60 <NA>                     <NA>    <NA>    <NA>   
 9      3556 FR    Male      17 None of these (NEVER ma… <NA>    <NA>    <NA>   
10 100004408 GB    Male      77 <NA>                     <NA>    <NA>    <NA>   
# ℹ 90 more rows
# ℹ 158 more variables: politische_Nachrichtenrezeption <dbl>, netusoft <fct>,
#   internetnutzung <dbl>, ppltrst <dbl>, pplfair <dbl>, pplhlp <dbl>,
#   polintr <fct>, psppsgva <fct>, actrolga <fct>, psppipla <fct>,
#   cptppola <fct>, trstprl <dbl>, trstlgl <dbl>, trstplc <dbl>, trstplt <dbl>,
#   trstprt <dbl>, trstep <dbl>, trstun <dbl>, vote <fct>, prtvede1 <fct>,
#   prtvede2 <fct>, contplt <fct>, wrkprty <fct>, wrkorg <fct>, badge <fct>, …
…
Durch die Dummy-Codierung wird die kategoriale Variable in zwei Gruppen übersetzt, von denen die eine mit 1 und die andere mit 0 codiert wird. Die Gruppe, der der Wert 0 zugeordnet wird, ist dann die Referenzkategorie. In unserem Beispiel Beispiel machen wir “männlich” zur Referenzkategorie (und codieren es mit 0 um). Der Regressionskoeffizient b gibt dann genau die Menge an, um die sich die Internetnutzung ändert, wenn sich das Geschlecht gegenüber der Referenzkategorie verändert.

PS: Die Variable als numerischen Wert zu behandeln, ist in unserem Fall etwas kompliziert, weil diese eine Faktorvariable war, die wir zuerst in eine Charaktervariable umwandeln mussten.

1.2.2 Dummy Codierung der Variable Gender

Code

daten_mod2 <- daten_mod %>%
mutate(gender_r  = recode(gender, 'Male'='0', 'Female'='1')) %>% # Recodierung der Var Gender zur Dummy-Variable
  mutate(gender_r = as.numeric(as.character(gender_r))) # Variable als numerischen Wert behandeln
daten_mod2

# A tibble: 100 × 167
        idno cntry gender alter marsts                   edubde1 eduade2 eduade3
       <dbl> <fct> <fct>  <dbl> <fct>                    <fct>   <fct>   <fct>  
 1  10008368 DE    Female    17 None of these (NEVER ma… (Noch)… Kein H… Kein b…
 2      1834 SE    Male      48 None of these (NEVER ma… <NA>    <NA>    <NA>   
 3      3551 FR    Male      48 <NA>                     <NA>    <NA>    <NA>   
 4      1231 FR    Female    35 None of these (NEVER ma… <NA>    <NA>    <NA>   
 5      2164 SE    Male      42 None of these (NEVER ma… <NA>    <NA>    <NA>   
 6      2817 FR    Female    23 None of these (NEVER ma… <NA>    <NA>    <NA>   
 7       591 SE    Male      70 <NA>                     <NA>    <NA>    <NA>   
 8      1135 SE    Male      60 <NA>                     <NA>    <NA>    <NA>   
 9      3556 FR    Male      17 None of these (NEVER ma… <NA>    <NA>    <NA>   
10 100004408 GB    Male      77 <NA>                     <NA>    <NA>    <NA>   
# ℹ 90 more rows
# ℹ 159 more variables: politische_Nachrichtenrezeption <dbl>, netusoft <fct>,
#   internetnutzung <dbl>, ppltrst <dbl>, pplfair <dbl>, pplhlp <dbl>,
#   polintr <fct>, psppsgva <fct>, actrolga <fct>, psppipla <fct>,
#   cptppola <fct>, trstprl <dbl>, trstlgl <dbl>, trstplc <dbl>, trstplt <dbl>,
#   trstprt <dbl>, trstep <dbl>, trstun <dbl>, vote <fct>, prtvede1 <fct>,
#   prtvede2 <fct>, contplt <fct>, wrkprty <fct>, wrkorg <fct>, badge <fct>, …
…
Code

daten_mod3 <- daten %>% 
  select(agea, netustm, cntry) %>% 
  rename(alter = agea,
         internetnutzung = netustm,
         land = cntry) %>% 
  filter(land %in% c("DE", "FR", "IS", "PL")) %>% 
  drop_na() %>% 
  group_by(land) %>% 
  slice_sample(n = 100) %>% 
  ungroup()
daten_mod3

# A tibble: 200 × 3
   alter internetnutzung land 
   <dbl>           <dbl> <fct>
 1    67              60 DE   
 2    30              90 DE   
 3    29             360 DE   
 4    19             180 DE   
 5    28             270 DE   
 6    28             240 DE   
 7    34             180 DE   
 8    69              60 DE   
 9    60             240 DE   
10    21             180 DE   
# ℹ 190 more rows
…
