Der ALLBUS Datensatz
…
str(sample_klein)

tibble [20 × 4] (S3: tbl_df/tbl/data.frame)
 $ alter        : num [1:20] 37 38 47 66 47 75 41 18 91 56 ...
 $ geschlecht   : Factor w/ 4 levels "KEINE ANGABE",..: 2 2 3 2 3 2 3 2 2 2 ...
 $ bildung      : Factor w/ 9 levels "NICHT BESTIMMBAR",..: 6 5 4 7 7 4 5 9 NA 7 ...
 $ fernsehkonsum: num [1:20] 3 7 6 2 7 7 4 7 NA 4 ...

Bei Alter handelt es sich schlicht um eine Zahl (num), während geschlecht und bildung sogenannte Faktoren sind. Faktoren nutzt man in R, um wiederholende nicht numerische (typischerweise nominal oder ordinalskalierte) Werte zu speichern. Praktisch jeder Faktor könnte genausogut eine Zeichenkette (chr) sein, aber oftmals sind Faktoren praktischer, weil sie eine festen Reihenfolge haben können (ranked factors), die sich bei Bedarf auch in Zahlen umwandel lassen. Im konkreten Beispiel ist das Geschlecht ein ungerankter Faktor, der Bildungsgrad hat hingegen einen Rang. Der Fernsehkonsum ist schließlich eine Likert-skalierte Variable die wir hier und auch an anderer Stelle als metrische Variable behandeln (und dafür den R-Datentypen numeric verwenden), auch wenn das strikt genommen nicht immer zulässig ist – zumindest dann nicht, wenn man nur auf Grundlage eines einzelnen Items misst und eine 5- oder 7-Punkt Skala verwendet (vgl etwa https://doi.org/10.1080/01488376.2017.1329775).

Wie sehen die anderen Samples aus? Wir sehen uns im nächsten Schritt das große Zufallssample an.

sample_gross

# A tibble: 500 × 29
   alter geschlecht fernsehkonsum politisches_interesse links_rechts_einordnung
   <dbl> <fct>              <dbl> <fct>                                   <dbl>
 1    50 FRAU                   7 MITTEL                                      5
 2    77 MANN                   7 STARK                                       3
 3    64 FRAU                   7 <NA>                                        5
 4    53 MANN                  NA UEBERHAUPT NICHT                            8
 5    29 MANN                   0 SEHR STARK                                  2
 6    44 FRAU                   3 MITTEL                                      7
 7    79 MANN                   5 MITTEL                                      4
 8    32 MANN                   7 MITTEL                                      5
 9    36 FRAU                   0 STARK                                       6
10    66 MANN                   7 STARK                                       3
# ℹ 490 more rows
# ℹ 24 more variables: wahlabsicht_partei <fct>,
#   zufriedenheit_demokratie <fct>, entwicklung_kriminalitaet <fct>,
#   social_media_nachrichtenquelle <dbl>, glaubwuerdigkeit_oer_tv <fct>,
#   glaubwuerdigkeit_privat_tv <fct>, glaubwuerdigkeit_zeitungen <fct>,
#   glaubwuerdigkeit_social_media <fct>, vertrauen_mitmenschen <dbl>,
#   vertrauen_gesundheitswesen <dbl>, …
…
Nun schauen wir uns den ALLBUS selbst – also den Gesamtdatensatz – genauer an.

daten

# A tibble: 5,342 × 544
   za_nr           doi   version respid substudy mode    splt21  eastwest german
   <dbl+lbl>       <chr> <chr>    <dbl> <dbl+lb> <dbl+l> <dbl+l> <dbl+lb> <dbl+>
 1 5280 [ALLBUS 2… http… 2.0.0 …      1 1 [SIMU… 4 [MAI… 2 [SPL… 1 [ALTE… 1 [JA]
 2 5280 [ALLBUS 2… http… 2.0.0 …      2 1 [SIMU… 4 [MAI… 1 [SPL… 1 [ALTE… 1 [JA]
 3 5280 [ALLBUS 2… http… 2.0.0 …      3 1 [SIMU… 4 [MAI… 1 [SPL… 1 [ALTE… 1 [JA]
 4 5280 [ALLBUS 2… http… 2.0.0 …      4 1 [SIMU… 4 [MAI… 2 [SPL… 2 [NEUE… 1 [JA]
 5 5280 [ALLBUS 2… http… 2.0.0 …      5 1 [SIMU… 4 [MAI… 2 [SPL… 1 [ALTE… 1 [JA]
 6 5280 [ALLBUS 2… http… 2.0.0 …      6 1 [SIMU… 3 [CAW… 2 [SPL… 1 [ALTE… 1 [JA]
 7 5280 [ALLBUS 2… http… 2.0.0 …      7 2 [SEQU… 3 [CAW… 3 [SPL… 1 [ALTE… 1 [JA]
 8 5280 [ALLBUS 2… http… 2.0.0 …      8 1 [SIMU… 4 [MAI… 2 [SPL… 1 [ALTE… 1 [JA]
 9 5280 [ALLBUS 2… http… 2.0.0 …      9 2 [SEQU… 3 [CAW… 3 [SPL… 2 [NEUE… 1 [JA]
10 5280 [ALLBUS 2… http… 2.0.0 …     10 1 [SIMU… 4 [MAI… 2 [SPL… 1 [ALTE… 1 [JA]
# ℹ 5,332 more rows
# ℹ 535 more variables: ep01 <dbl+lbl>, ep03 <dbl+lbl>, ep04 <dbl+lbl>,
#   ep06 <dbl+lbl>, lm01 <dbl+lbl>, lm02 <dbl+lbl>, lm19 <dbl+lbl>,
#   lm20 <dbl+lbl>, lm21 <dbl+lbl>, lm22 <dbl+lbl>, lm14 <dbl+lbl>,
#   xr19 <dbl+lbl>, xr20 <dbl+lbl>, lm27 <dbl+lbl>, lm28 <dbl+lbl>,
#   lm29 <dbl+lbl>, lm30 <dbl+lbl>, lm31 <dbl+lbl>, lm32 <dbl+lbl>,
#   lm33 <dbl+lbl>, lm34 <dbl+lbl>, lm35 <dbl+lbl>, lm36 <dbl+lbl>, …
…
