Zusammenhänge bei zwei Variablen mittels Korrelation und Regression
…
3.2.4 Data Management

Damit der Output etwas nachvollziehbarer wird, benenne ich die Variablen mit dem rename-Befehl zunächst einmal um. Dann nutze ich den drop_na-Befehl, um alle Fällen mit fehlenden Werten zu entfernen (in der Klammer spezifiziere ich, auf welche Variablen sich der Befehl beziehen soll). Das alles weise ich einem neuen Datenobjekt zu: daten_mod

Schließlich nutze ich den slice_sample-Befehl, um aus unseren 8432 Fällen ein Zufallssample von n=100 Fällen zu ziehen, weil mir das die visuelle Interpretation erleichtert (diesen Befehl könnten wir hier auch weglassen, dann bekommen wir unten aber sehr sehr viele Datenpunkt in unserem Streudiagramm - probieren Sie es mal aus!)

daten_mod <- daten %>% 
  rename(alter = agea,
         internetnutzung = netustm) %>% 
  drop_na(c(alter, internetnutzung)) %>% 
slice_sample(n = 100) 
daten_mod

# A tibble: 100 × 166
        idno cntry gndr   alter marsts   edubde1 eduade2 eduade3 nwspol netusoft
       <dbl> <fct> <fct>  <dbl> <fct>    <fct>   <fct>   <fct>    <dbl> <fct>   
 1  10003492 DE    Male      62 <NA>     Abitur… Diplom… Kein b…     60 Every d…
 2 100001846 GB    Male      48 <NA>     <NA>    <NA>    <NA>       120 Every d…
 3 100000975 GB    Female    58 <NA>     <NA>    <NA>    <NA>        15 Every d…
 4 100002441 GB    Female    18 None of… <NA>    <NA>    <NA>        60 Every d…
 5 100003993 GB    Male      48 <NA>     <NA>    <NA>    <NA>         0 Every d…
 6 100004014 GB    Female    69 Legally… <NA>    <NA>    <NA>        45 Most da…
 7  10009402 DE    Female    38 Legally… Volks-… Kein H… Gewerb…     60 Every d…
 8 100002639 GB    Female    19 None of… <NA>    <NA>    <NA>       180 Every d…
 9 100002500 GB    Male      51 None of… <NA>    <NA>    <NA>       180 Every d…
10 100002521 GB    Female    71 <NA>     <NA>    <NA>    <NA>        60 Every d…
# ℹ 90 more rows
# ℹ 156 more variables: internetnutzung <dbl>, ppltrst <dbl>, pplfair <dbl>,
#   pplhlp <dbl>, polintr <fct>, psppsgva <fct>, actrolga <fct>,
#   psppipla <fct>, cptppola <fct>, trstprl <dbl>, trstlgl <dbl>,
#   trstplc <dbl>, trstplt <dbl>, trstprt <dbl>, trstep <dbl>, trstun <dbl>,
#   vote <fct>, prtvede1 <fct>, prtvede2 <fct>, contplt <fct>, wrkprty <fct>,
#   wrkorg <fct>, badge <fct>, sgnptit <fct>, pbldmn <fct>, bctprd <fct>, …
…
glance(model)

# A tibble: 1 × 12
  r.squared adj.r.squared sigma statistic p.value    df logLik   AIC   BIC
      <dbl>         <dbl> <dbl>     <dbl>   <dbl> <dbl>  <dbl> <dbl> <dbl>
1    0.0513        0.0416  185.      5.30  0.0234     1  -663. 1331. 1339.
# ℹ 3 more variables: deviance <dbl>, df.residual <int>, nobs <int>

augment(model)

# A tibble: 100 × 8
   internetnutzung alter .fitted  .resid   .hat .sigma    .cooksd .std.resid
             <dbl> <dbl>   <dbl>   <dbl>  <dbl>  <dbl>      <dbl>      <dbl>
 1              90    62    138.  -47.6  0.0174   186. 0.000598      -0.260 
 2             180    48    174.    6.39 0.0100   186. 0.00000611     0.0348
 3              60    58    148.  -87.9  0.0138   185. 0.00161       -0.479 
 4             180    18    251.  -70.9  0.0426   185. 0.00342       -0.392 
 5              60    48    174. -114.   0.0100   185. 0.00193       -0.618 
 6              15    69    120. -105.   0.0265   185. 0.00448       -0.574 
 7            1430    38    199. 1231.   0.0135   136. 0.309          6.71  
 8             150    19    248.  -98.3  0.0404   185. 0.00622       -0.543 
 9             240    51    166.   74.1  0.0104   185. 0.000854       0.404 
10              35    71    114.  -79.4  0.0298   185. 0.00292       -0.437 
# ℹ 90 more rows
…
