Tabellen und Grafiken in R
…
einkommen <- daten %>% 
  select(age, sex, educ, di01a) %>% 
  rename(alter = age,
         geschlecht = sex,
         bildung = educ,
         einkommen = di01a) %>% 
  replace_with_na_all(condition = ~.x < 0) %>% 
  mutate(geschlecht = as_factor(geschlecht),
         bildung = as_factor(bildung)) %>% 
  drop_na() %>% 
  slice_sample(n = 80)
einkommen

# A tibble: 80 × 4
   alter     geschlecht bildung            einkommen
   <dbl+lbl> <fct>      <fct>              <dbl+lbl>
 1 44        MANN       VOLKS-,HAUPTSCHULE 1814     
 2 44        MANN       FACHHOCHSCHULREIFE 3600     
 3 36        MANN       FACHHOCHSCHULREIFE 3600     
 4 49        MANN       FACHHOCHSCHULREIFE 1450     
 5 53        MANN       MITTLERE REIFE     2500     
 6 50        FRAU       HOCHSCHULREIFE     1550     
 7 57        FRAU       FACHHOCHSCHULREIFE 2900     
 8 38        MANN       HOCHSCHULREIFE     5000     
 9 59        MANN       MITTLERE REIFE     4000     
10 43        MANN       HOCHSCHULREIFE     2900     
# ℹ 70 more rows
…
